[
    {
        "key": "1",
        "name": "Firstname",
        "status": true
    },
    {
        "key": "2",
        "name": "Surname",
        "status": false
    },
    {
        "key": "3",
        "name": "Birthdate day",
        "status": true
    },
    {
        "key": "4",
        "name": "Birthdate month",
        "status": false
    },
    {
        "key": "5",
        "name": "Birthdate year",
        "status": true
    },
    {
        "key": "6",
        "name": "Hash of the photo",
        "status": false
    },
    {
        "key": "7",
        "name": "Vaccine/prophylaxis",
        "status": true
    },
    {
        "key": "8",
        "name": "Vaccine medical product",
        "status": false
    },
    {
        "key": "9",
        "name": "Manufacturer",
        "status": true
    },
    {
        "key": "10",
        "name": "Total number of doses",
        "status": false
    },
    {
        "key": "11",
        "name": "Unique certificate identifier",
        "status": false
    },
    {
        "key": "12",
        "name": "Vaccination day",
        "status": true
    },
    {
        "key": "13",
        "name": "Vaccination moth",
        "status": true
    },
    {
        "key": "14",
        "name": "Vaccination year",
        "status": false
    },
    {
        "key": "15",
        "name": "Completed vaccination",
        "status": false
    },
    {
        "key": "16",
        "name": "Dose number",
        "status": false
    },
    {
        "key": "17",
        "name": "Certificate issuer",
        "status": false
    },
    {
        "key": "18",
        "name": "EU Member state",
        "status": true
    },
    {
        "key": "19",
        "name": "Optional1",
        "status": false
    },
    {
        "key": "20",
        "name": "Optional2",
        "status": false
    }
]